<?xml version="1.0" encoding="UTF-8" standalone="no"?>
<!-- Created with Inkscape (http://www.inkscape.org/) -->

<svg
   xmlns:dc="http://purl.org/dc/elements/1.1/"
   xmlns:cc="http://creativecommons.org/ns#"
   xmlns:rdf="http://www.w3.org/1999/02/22-rdf-syntax-ns#"
   xmlns:svg="http://www.w3.org/2000/svg"
   xmlns="http://www.w3.org/2000/svg"
   xmlns:sodipodi="http://sodipodi.sourceforge.net/DTD/sodipodi-0.dtd"
   xmlns:inkscape="http://www.inkscape.org/namespaces/inkscape"
   version="1.1"
   id="svg4435"
   xml:space="preserve"
   width="800"
   height="800"
   viewBox="0 0 800 800"
   sodipodi:docname="octopus-silhouette-publicdomainvectors.org.svg"
   inkscape:version="0.92.4 (5da689c313, 2019-01-14)"><metadata
     id="metadata4441"><rdf:RDF><cc:Work
         rdf:about=""><dc:format>image/svg+xml</dc:format><dc:type
           rdf:resource="http://purl.org/dc/dcmitype/StillImage" /><dc:title></dc:title></cc:Work></rdf:RDF></metadata><defs
     id="defs4439"><clipPath
       clipPathUnits="userSpaceOnUse"
       id="clipPath4451"><path
         d="M 0,600 H 600 V 0 H 0 Z"
         id="path4449"
         inkscape:connector-curvature="0" /></clipPath></defs><sodipodi:namedview
     pagecolor="#ffffff"
     bordercolor="#666666"
     borderopacity="1"
     objecttolerance="10"
     gridtolerance="10"
     guidetolerance="10"
     inkscape:pageopacity="0"
     inkscape:pageshadow="2"
     inkscape:window-width="1920"
     inkscape:window-height="1018"
     id="namedview4437"
     showgrid="false"
     inkscape:zoom="0.91741758"
     inkscape:cx="420.33898"
     inkscape:cy="374.57627"
     inkscape:window-x="-8"
     inkscape:window-y="-8"
     inkscape:window-maximized="1"
     inkscape:current-layer="g4443" /><g
     id="g4443"
     inkscape:groupmode="layer"
     inkscape:label="octopus-silhouette-publicdomainvectors.org"
     transform="matrix(1.3333333,0,0,-1.3333333,0,800)"><g
       id="g4445"><g
         id="g4447"
         clip-path="url(#clipPath4451)"><path
           d="m 274.646,362.77 18.503,-7.343 c -13.069,-10.132 -18.503,7.343 -18.503,7.343 m 54.726,0 c 0,0 -5.434,-17.475 -18.504,-7.343 z m 241.691,-94.371 c 0.016,2.161 -0.528,4.292 -0.844,6.458 -0.176,1.082 -0.566,2.118 -0.854,3.184 -0.343,1.045 -0.553,2.152 -1.03,3.152 -0.881,2.032 -1.684,4.131 -2.882,6.014 -2.124,3.956 -5.073,7.372 -8.205,10.564 -1.692,1.437 -3.289,3.065 -5.144,4.292 l -2.738,1.948 -2.886,1.689 c -1.908,1.2 -3.979,2.008 -6.003,2.976 -2.067,0.833 -4.177,1.591 -6.314,2.25 -2.197,0.534 -4.225,1.223 -6.656,1.549 l -3.544,0.563 c -1.089,0.134 -1.976,0.181 -2.977,0.275 l -1.462,0.124 -0.729,0.062 -0.573,0.014 -0.202,-0.005 -0.41,-0.003 -3.28,-0.043 c -2.184,-0.087 -4.398,0.056 -6.57,-0.299 l -6.562,-0.808 -6.447,-1.437 c -8.519,-2.216 -16.651,-5.668 -24.142,-9.934 -7.488,-4.284 -14.267,-9.404 -20.551,-14.8 -6.278,-5.412 -12.013,-11.192 -17.339,-16.927 -2.581,-2.817 -5.144,-5.618 -7.691,-8.4 -2.437,-2.514 -4.747,-5.031 -7.218,-7.306 -9.733,-9.208 -20.241,-16.396 -30.453,-19.746 -10.201,-3.479 -19.682,-3.244 -27.779,-0.54 -4.65,1.527 -8.866,3.817 -12.633,6.494 10.907,-0.357 23.607,1.069 36.401,6.692 6.85,3.015 13.587,7.286 19.504,12.717 5.934,5.42 11,11.945 14.983,19.016 4.014,7.072 6.965,14.675 8.997,22.437 2.016,7.757 3.44,15.699 4.014,23.66 0.387,3.977 0.458,7.99 0.61,11.956 0.052,3.701 0.105,7.428 0.154,11.178 0.154,7.312 0.554,14.511 1.491,21.614 0.95,7.089 2.35,14.099 4.585,20.758 2.244,6.643 5.243,12.944 9.051,18.685 3.667,5.811 8.781,10.74 13.949,14.979 0.765,0.561 1.602,1.225 2.306,1.702 l 1.923,1.192 c 1.182,0.859 2.829,1.535 4.25,2.322 1.5,0.682 3.033,1.299 4.573,1.864 1.575,0.43 3.121,1.059 4.726,1.3 12.756,3.043 26.23,-1.229 33.621,-11.516 l 0.712,-0.94 0.361,-0.468 0.181,-0.235 c -0.366,0.66 -0.051,0.098 -0.111,0.206 l 0.084,-0.15 1.349,-2.387 c 0.279,-0.441 0.338,-0.698 0.445,-0.986 l 0.337,-0.855 0.368,-0.862 0.273,-1.055 c 0.848,-2.777 1.052,-5.816 0.845,-8.852 -0.348,-6.104 -2.568,-12.184 -5.628,-17.471 -6.066,-10.816 -17.064,-17.107 -27.893,-18.74 -5.348,-0.802 -10.779,-0.393 -14.863,1.813 -2.051,1.072 -3.645,2.65 -4.672,4.516 -1.004,1.884 -1.445,4.051 -1.426,6.226 0.03,0.545 0.058,1.088 0.084,1.627 0.033,0.4 0.165,1.108 0.241,1.638 0.209,1.043 0.463,1.946 0.851,2.925 0.753,1.886 1.879,3.543 3.24,4.88 2.733,2.687 6.295,4.047 9.528,4.318 3.24,0.274 6.26,-0.579 8.104,-2.29 0.927,-0.844 1.526,-1.875 1.874,-2.897 0.264,-1.04 0.402,-2.045 0.297,-2.942 -0.128,-1.802 -0.63,-3.144 -0.971,-4.019 -0.378,-0.871 -0.574,-1.321 -0.574,-1.321 0,0 0.23,0.434 0.67,1.277 0.409,0.855 1.022,2.161 1.297,4.02 0.173,0.925 0.119,1.998 -0.092,3.158 -0.291,1.143 -0.874,2.352 -1.847,3.383 -1.948,2.094 -5.235,3.277 -8.83,3.245 -3.587,-0.036 -7.677,-1.213 -11.11,-4.103 -1.709,-1.438 -3.203,-3.307 -4.277,-5.496 -0.525,-1.062 -0.98,-2.323 -1.306,-3.527 -0.133,-0.607 -0.264,-1.037 -0.397,-1.799 -0.083,-0.631 -0.187,-1.264 -0.249,-1.912 -0.216,-2.588 0.082,-5.447 1.276,-8.155 1.2,-2.689 3.332,-5.094 5.921,-6.705 5.214,-3.308 11.602,-4.133 17.861,-3.702 6.332,0.472 12.679,2.271 18.844,5.549 0.842,0.426 1.425,0.806 2.149,1.213 0.848,0.518 1.497,1.006 2.263,1.518 1.521,0.971 2.807,2.202 4.194,3.357 2.617,2.455 5.015,5.193 7.13,8.204 4.128,6.049 7.409,13.102 8.522,21.112 0.573,3.977 0.64,8.21 -0.268,12.449 l -0.306,1.594 -0.53,1.705 -0.576,1.709 c -0.2,0.568 -0.408,1.183 -0.599,1.531 l -1.167,2.48 -0.073,0.154 c -0.116,0.21 0.151,-0.245 -0.273,0.51 l -0.21,0.33 -0.423,0.662 -0.851,1.328 c -0.585,0.876 -1.114,1.793 -1.764,2.638 l -2.048,2.478 c -1.298,1.725 -3.025,3.088 -4.593,4.618 -0.798,0.754 -1.736,1.338 -2.61,2.012 -0.909,0.62 -1.747,1.372 -2.736,1.876 -1.93,1.081 -3.845,2.26 -5.94,3.029 -4.091,1.851 -8.507,2.774 -12.938,3.408 -2.213,0.113 -4.469,0.44 -6.691,0.282 l -3.355,-0.111 -3.324,-0.414 c -2.241,-0.205 -4.379,-0.822 -6.576,-1.283 -2.143,-0.592 -4.281,-1.272 -6.381,-2.048 -2.069,-0.909 -4.097,-1.591 -6.227,-2.81 l -3.158,-1.708 c -0.946,-0.553 -1.68,-1.056 -2.531,-1.589 l -1.236,-0.788 -0.62,-0.396 -0.461,-0.335 -0.159,-0.127 -0.323,-0.252 -2.58,-2.026 c -1.682,-1.395 -3.528,-2.628 -5.037,-4.23 l -4.723,-4.623 -4.247,-5.059 c -5.423,-6.936 -9.789,-14.617 -13.144,-22.554 -3.348,-7.952 -5.623,-16.137 -7.341,-24.242 -1.695,-8.11 -2.744,-16.185 -3.488,-23.977 -0.339,-3.806 -0.675,-7.59 -1.01,-11.346 -0.408,-3.475 -0.714,-6.879 -1.295,-10.186 -2.138,-13.229 -6.122,-25.321 -12.195,-34.185 -5.992,-8.96 -13.668,-14.531 -21.74,-17.303 -8.081,-2.814 -16.537,-3.044 -24.036,-1.985 -0.441,0.059 -0.847,0.159 -1.284,0.225 3.005,1.641 6.086,3.499 9.217,5.667 9.45,6.494 19.542,15.872 26.709,29.13 3.56,6.586 6.255,14.093 7.592,22.017 1.358,7.917 1.354,16.18 0.155,24.204 -1.176,8.047 -3.514,15.864 -6.676,23.234 -3.169,7.363 -6.919,14.508 -11.349,21.144 -2.141,3.375 -4.552,6.589 -6.859,9.811 -2.232,2.954 -4.48,5.927 -6.744,8.919 -4.366,5.865 -8.469,11.794 -12.092,17.98 -3.6,6.176 -6.797,12.572 -9.124,19.197 -2.307,6.623 -3.806,13.437 -4.324,20.308 -0.672,6.839 0.337,13.869 1.816,20.387 0.256,0.914 0.511,1.951 0.774,2.761 l 0.787,2.122 c 0.407,1.401 1.287,2.946 1.93,4.441 0.762,1.458 1.594,2.886 2.466,4.28 0.978,1.304 1.812,2.749 2.93,3.926 8.201,10.231 21.461,15.132 33.611,11.547 l 1.141,-0.301 0.571,-0.149 0.288,-0.075 c -0.696,0.298 -0.103,0.046 -0.218,0.096 l 0.16,-0.067 2.531,-1.057 c 0.487,-0.178 0.695,-0.343 0.957,-0.504 l 0.791,-0.469 0.818,-0.455 0.863,-0.666 c 2.375,-1.672 4.402,-3.946 6.102,-6.467 3.473,-5.033 5.454,-11.196 6.286,-17.247 1.851,-12.262 -2.972,-23.978 -10.512,-31.917 -3.73,-3.916 -8.271,-6.927 -12.85,-7.691 -2.275,-0.414 -4.503,-0.148 -6.458,0.694 -1.95,0.871 -3.629,2.31 -4.945,4.037 l -0.933,1.337 c -0.222,0.335 -0.552,0.975 -0.819,1.441 -0.474,0.953 -0.829,1.821 -1.124,2.832 -0.563,1.951 -0.691,3.949 -0.439,5.84 0.504,3.799 2.483,7.061 4.869,9.259 2.39,2.203 5.297,3.388 7.803,3.167 1.249,-0.099 2.355,-0.542 3.257,-1.135 0.848,-0.66 1.573,-1.369 2.042,-2.142 1.005,-1.5 1.432,-2.869 1.701,-3.769 0.235,-0.917 0.356,-1.393 0.356,-1.393 0,0 -0.086,0.484 -0.254,1.421 -0.202,0.923 -0.519,2.329 -1.444,3.965 -0.431,0.839 -1.13,1.652 -2.008,2.441 -0.935,0.721 -2.138,1.317 -3.539,1.535 -2.82,0.456 -6.143,-0.627 -8.96,-2.86 -2.81,-2.229 -5.313,-5.669 -6.253,-10.061 -0.463,-2.181 -0.497,-4.579 0.004,-6.962 0.231,-1.161 0.644,-2.437 1.131,-3.588 0.268,-0.559 0.426,-0.98 0.79,-1.663 0.321,-0.55 0.63,-1.111 0.977,-1.661 1.418,-2.178 3.41,-4.249 6.018,-5.653 2.598,-1.385 5.755,-1.976 8.788,-1.658 6.143,0.59 11.696,3.86 16.37,8.043 4.71,4.261 8.615,9.576 11.469,15.95 0.4,0.851 0.63,1.509 0.951,2.274 0.352,0.931 0.567,1.715 0.855,2.59 0.605,1.699 0.864,3.461 1.248,5.225 0.563,3.545 0.771,7.178 0.594,10.85 -0.456,7.312 -2.194,14.893 -6.233,21.897 -1.989,3.492 -4.537,6.876 -7.856,9.667 l -1.221,1.069 -1.463,1.02 -1.506,0.994 c -0.505,0.327 -1.047,0.681 -1.41,0.841 l -2.445,1.242 -0.154,0.078 c -0.216,0.094 0.274,-0.103 -0.526,0.232 l -0.368,0.131 -0.741,0.264 -1.488,0.527 c -1,0.331 -1.982,0.733 -3.011,1 l -3.138,0.697 c -2.085,0.565 -4.286,0.582 -6.458,0.826 -1.095,0.105 -2.194,-0.01 -3.3,-0.015 -1.098,-0.068 -2.22,0.012 -3.309,-0.197 -2.189,-0.334 -4.423,-0.577 -6.55,-1.256 -4.366,-1.052 -8.417,-3.032 -12.301,-5.254 -1.821,-1.269 -3.8,-2.397 -5.456,-3.886 l -2.581,-2.149 -2.371,-2.363 c -1.644,-1.538 -2.952,-3.337 -4.403,-5.049 -1.331,-1.786 -2.6,-3.636 -3.78,-5.533 -1.076,-1.992 -2.259,-3.774 -3.191,-6.044 l -1.446,-3.286 c -0.408,-1.018 -0.678,-1.867 -1.022,-2.808 l -0.49,-1.383 -0.246,-0.689 -0.157,-0.551 -0.052,-0.198 -0.099,-0.397 -0.792,-3.18 c -0.473,-2.136 -1.169,-4.241 -1.378,-6.433 l -0.89,-6.55 -0.246,-6.601 c -0.025,-8.802 1.242,-17.546 3.469,-25.874 2.238,-8.33 5.466,-16.189 9.088,-23.64 3.637,-7.445 7.768,-14.46 11.961,-21.068 2.07,-3.213 4.127,-6.407 6.169,-9.577 1.812,-2.998 3.659,-5.869 5.233,-8.838 6.431,-11.756 10.711,-23.744 11.358,-34.471 0.77,-10.75 -1.87,-19.861 -6.541,-27.002 -4.649,-7.185 -11.186,-12.556 -17.755,-16.323 -0.35,-0.205 -0.698,-0.389 -1.044,-0.586 -28.086,8.549 -2.249,34.85 6.704,47.539 9.401,13.316 -5.028,17.692 -6.006,22.783 -0.981,5.09 8.814,3.916 5.679,12.141 -3.136,8.224 -30.936,46.699 -32.504,54.14 -3.722,3.72 -13.513,2.446 -14.881,0 -1.568,-7.441 -29.371,-45.916 -32.505,-54.14 -3.133,-8.225 9.006,-5.875 8.028,-10.966 -0.979,-5.089 -17.755,-10.642 -8.355,-23.958 8.903,-12.611 34.488,-38.675 7.214,-47.384 -0.259,0.146 -0.516,0.277 -0.773,0.431 -6.569,3.767 -13.105,9.138 -17.755,16.323 -4.675,7.142 -7.31,16.252 -6.542,27.002 0.648,10.727 4.928,22.716 11.358,34.472 1.574,2.968 3.421,5.841 5.232,8.837 2.043,3.17 4.101,6.364 6.17,9.577 4.192,6.608 8.324,13.623 11.96,21.068 3.624,7.451 6.851,15.31 9.092,23.64 2.224,8.328 3.493,17.072 3.47,25.874 l -0.25,6.602 -0.888,6.55 c -0.206,2.191 -0.907,4.296 -1.378,6.432 l -0.793,3.18 -0.099,0.397 -0.052,0.198 -0.158,0.551 -0.245,0.689 -0.492,1.383 c -0.345,0.941 -0.614,1.79 -1.021,2.808 l -1.446,3.286 c -0.932,2.27 -2.115,4.052 -3.19,6.044 -1.178,1.897 -2.452,3.747 -3.783,5.533 -1.448,1.712 -2.76,3.511 -4.401,5.05 l -2.367,2.362 -2.581,2.149 c -1.658,1.489 -3.638,2.617 -5.458,3.887 -3.885,2.221 -7.938,4.202 -12.303,5.253 -2.125,0.679 -4.36,0.922 -6.549,1.256 -1.09,0.209 -2.212,0.131 -3.311,0.197 -1.105,0.005 -2.204,0.12 -3.296,0.015 -2.174,-0.244 -4.375,-0.262 -6.459,-0.826 l -3.142,-0.697 c -1.028,-0.268 -2.01,-0.669 -3.009,-1 l -1.489,-0.527 -0.738,-0.264 -0.368,-0.132 c -0.801,-0.335 -0.309,-0.139 -0.53,-0.231 l -0.153,-0.078 -2.444,-1.243 c -0.361,-0.159 -0.903,-0.513 -1.411,-0.842 l -1.504,-0.993 -1.465,-1.019 -1.221,-1.071 c -3.316,-2.791 -5.862,-6.173 -7.855,-9.665 -4.039,-7.004 -5.778,-14.586 -6.232,-21.897 -0.179,-3.672 0.033,-7.305 0.591,-10.852 0.387,-1.764 0.648,-3.524 1.25,-5.225 0.288,-0.874 0.502,-1.657 0.857,-2.588 0.32,-0.766 0.546,-1.424 0.947,-2.276 2.859,-6.372 6.764,-11.689 11.473,-15.948 4.676,-4.183 10.225,-7.451 16.372,-8.043 3.029,-0.32 6.19,0.273 8.786,1.658 2.606,1.404 4.598,3.475 6.015,5.654 0.35,0.549 0.657,1.11 0.98,1.66 0.361,0.684 0.523,1.104 0.791,1.663 0.483,1.153 0.895,2.427 1.132,3.588 0.497,2.385 0.464,4.781 0,6.962 -0.938,4.392 -3.443,7.832 -6.253,10.061 -2.816,2.233 -6.137,3.316 -8.958,2.86 -1.404,-0.218 -2.609,-0.814 -3.541,-1.537 -0.876,-0.787 -1.577,-1.6 -2.004,-2.439 -0.926,-1.636 -1.245,-3.042 -1.449,-3.965 -0.169,-0.937 -0.255,-1.421 -0.255,-1.421 0,0 0.124,0.476 0.361,1.393 0.268,0.9 0.695,2.269 1.7,3.769 0.467,0.773 1.192,1.482 2.04,2.142 0.902,0.593 2.009,1.036 3.257,1.135 2.506,0.221 5.414,-0.964 7.805,-3.167 2.381,-2.197 4.361,-5.46 4.867,-9.259 0.256,-1.889 0.127,-3.889 -0.438,-5.84 -0.296,-1.009 -0.651,-1.879 -1.125,-2.832 -0.265,-0.466 -0.595,-1.106 -0.817,-1.439 l -0.931,-1.339 c -1.319,-1.727 -2.997,-3.166 -4.946,-4.037 -1.959,-0.842 -4.186,-1.108 -6.461,-0.694 -4.577,0.764 -9.116,3.775 -12.847,7.691 -7.544,7.939 -12.365,19.653 -10.513,31.917 0.831,6.051 2.811,12.214 6.285,17.245 1.7,2.523 3.726,4.797 6.103,6.469 l 0.862,0.666 0.816,0.455 0.792,0.469 c 0.262,0.16 0.47,0.326 0.96,0.504 l 2.528,1.057 0.159,0.065 c -0.113,-0.049 0.478,0.204 -0.215,-0.094 l 0.287,0.075 0.57,0.149 1.141,0.301 c 12.15,3.585 25.406,-1.316 33.61,-11.547 1.118,-1.177 1.955,-2.622 2.932,-3.926 0.87,-1.392 1.7,-2.822 2.465,-4.279 0.643,-1.494 1.521,-3.041 1.93,-4.442 l 0.785,-2.121 c 0.265,-0.811 0.519,-1.848 0.778,-2.762 1.476,-6.519 2.486,-13.548 1.814,-20.387 -0.517,-6.871 -2.017,-13.685 -4.323,-20.308 -2.327,-6.625 -5.525,-13.021 -9.127,-19.197 -3.618,-6.186 -7.723,-12.115 -12.092,-17.98 -2.261,-2.992 -4.509,-5.965 -6.74,-8.917 -2.313,-3.224 -4.719,-6.438 -6.858,-9.813 -4.435,-6.636 -8.182,-13.781 -11.355,-21.143 -3.159,-7.371 -5.497,-15.188 -6.67,-23.235 -1.197,-8.024 -1.205,-16.287 0.152,-24.204 1.338,-7.924 4.034,-15.431 7.594,-22.015 7.169,-13.26 17.258,-22.637 26.709,-29.131 3.13,-2.169 6.212,-4.027 9.218,-5.668 -0.438,-0.066 -0.843,-0.166 -1.289,-0.225 -7.496,-1.059 -15.952,-0.829 -24.031,1.985 -8.075,2.772 -15.748,8.343 -21.741,17.303 -6.075,8.864 -10.057,20.956 -12.195,34.182 -0.582,3.31 -0.887,6.714 -1.295,10.189 -0.334,3.756 -0.671,7.54 -1.011,11.346 -0.746,7.792 -1.792,15.865 -3.49,23.976 -1.717,8.106 -3.992,16.291 -7.338,24.241 -3.355,7.939 -7.72,15.619 -13.144,22.555 l -4.247,5.059 -4.724,4.624 c -1.51,1.602 -3.354,2.835 -5.037,4.23 l -2.578,2.026 -0.324,0.252 -0.159,0.127 -0.463,0.335 -0.617,0.396 -1.237,0.786 c -0.85,0.534 -1.582,1.038 -2.531,1.591 l -3.159,1.708 c -2.129,1.219 -4.157,1.901 -6.228,2.81 -2.098,0.776 -4.233,1.456 -6.38,2.048 -2.196,0.461 -4.334,1.078 -6.577,1.283 l -3.321,0.414 -3.356,0.111 c -2.219,0.158 -4.476,-0.169 -6.694,-0.282 -4.427,-0.634 -8.844,-1.557 -12.934,-3.408 -2.097,-0.769 -4.011,-1.948 -5.942,-3.029 -0.987,-0.504 -1.827,-1.256 -2.735,-1.876 -0.874,-0.674 -1.814,-1.258 -2.61,-2.012 -1.568,-1.53 -3.294,-2.893 -4.594,-4.618 l -2.049,-2.478 c -0.65,-0.843 -1.178,-1.762 -1.763,-2.637 l -0.851,-1.327 -0.421,-0.664 -0.211,-0.33 c -0.426,-0.755 -0.16,-0.299 -0.274,-0.508 l -0.074,-0.156 -1.166,-2.48 c -0.191,-0.348 -0.399,-0.963 -0.597,-1.531 l -0.577,-1.709 -0.533,-1.703 -0.304,-1.596 c -0.905,-4.239 -0.84,-8.472 -0.268,-12.449 1.112,-8.01 4.393,-15.063 8.522,-21.112 2.114,-3.011 4.511,-5.749 7.13,-8.202 1.389,-1.157 2.671,-2.388 4.194,-3.361 0.764,-0.512 1.414,-0.998 2.263,-1.517 0.726,-0.406 1.309,-0.786 2.148,-1.212 6.166,-3.278 12.512,-5.077 18.844,-5.549 6.262,-0.431 12.649,0.394 17.862,3.702 2.588,1.61 4.719,4.016 5.922,6.705 1.191,2.708 1.491,5.565 1.273,8.155 -0.06,0.648 -0.165,1.28 -0.246,1.91 -0.134,0.764 -0.265,1.194 -0.396,1.801 -0.327,1.203 -0.782,2.465 -1.309,3.525 -1.072,2.191 -2.568,4.06 -4.273,5.498 -3.437,2.89 -7.525,4.067 -11.112,4.103 -3.594,0.032 -6.884,-1.151 -8.831,-3.245 -0.972,-1.031 -1.556,-2.24 -1.848,-3.383 -0.209,-1.161 -0.264,-2.233 -0.087,-3.158 0.274,-1.859 0.885,-3.165 1.292,-4.02 0.441,-0.843 0.672,-1.277 0.672,-1.277 0,0 -0.197,0.45 -0.574,1.321 -0.341,0.875 -0.845,2.217 -0.969,4.019 -0.108,0.897 0.031,1.901 0.295,2.942 0.35,1.022 0.948,2.053 1.877,2.897 1.841,1.711 4.863,2.564 8.104,2.29 3.229,-0.271 6.792,-1.631 9.526,-4.32 1.359,-1.335 2.486,-2.992 3.242,-4.878 0.383,-0.979 0.637,-1.884 0.847,-2.925 0.076,-0.53 0.209,-1.239 0.237,-1.64 0.03,-0.537 0.059,-1.08 0.089,-1.628 0.018,-2.172 -0.422,-4.34 -1.426,-6.223 -1.029,-1.866 -2.623,-3.444 -4.674,-4.516 -4.083,-2.206 -9.515,-2.615 -14.863,-1.813 -10.827,1.633 -21.826,7.924 -27.89,18.74 -3.062,5.287 -5.281,11.367 -5.628,17.471 -0.206,3.036 -0.003,6.077 0.845,8.852 l 0.273,1.056 0.366,0.861 0.336,0.856 c 0.11,0.287 0.17,0.544 0.446,0.986 l 1.349,2.386 0.087,0.15 c -0.061,-0.108 0.251,0.455 -0.114,-0.206 l 0.182,0.235 0.358,0.468 0.716,0.94 c 7.39,10.287 20.865,14.558 33.619,11.516 1.603,-0.241 3.153,-0.87 4.725,-1.3 1.541,-0.565 3.075,-1.182 4.574,-1.864 1.422,-0.787 3.068,-1.464 4.249,-2.322 l 1.923,-1.192 c 0.708,-0.477 1.541,-1.141 2.307,-1.702 5.167,-4.239 10.281,-9.168 13.949,-14.979 3.808,-5.741 6.809,-12.042 9.054,-18.686 2.232,-6.658 3.632,-13.67 4.582,-20.757 0.938,-7.105 1.34,-14.302 1.489,-21.617 0.054,-3.748 0.103,-7.476 0.153,-11.175 0.156,-3.966 0.228,-7.979 0.611,-11.956 0.575,-7.961 2.001,-15.903 4.018,-23.66 2.029,-7.762 4.984,-15.366 8.996,-22.439 3.98,-7.071 9.047,-13.596 14.981,-19.014 5.92,-5.431 12.654,-9.702 19.508,-12.717 12.792,-5.623 25.494,-7.049 36.4,-6.69 -3.768,-2.678 -7.984,-4.969 -12.634,-6.496 -8.099,-2.704 -17.579,-2.939 -27.782,0.54 -10.21,3.35 -20.717,10.538 -30.45,19.746 -2.473,2.275 -4.78,4.792 -7.217,7.306 -2.547,2.782 -5.112,5.582 -7.693,8.4 -5.325,5.735 -11.062,11.515 -17.337,16.927 -6.287,5.396 -13.064,10.516 -20.553,14.8 -7.49,4.266 -15.619,7.718 -24.143,9.934 l -6.447,1.437 -6.561,0.808 c -2.169,0.355 -4.385,0.212 -6.57,0.299 l -3.278,0.043 -0.409,0.003 -0.204,0.005 -0.571,-0.014 -0.731,-0.062 -1.46,-0.124 c -1.001,-0.094 -1.89,-0.141 -2.979,-0.275 l -3.544,-0.563 c -2.432,-0.326 -4.457,-1.015 -6.656,-1.549 -2.137,-0.659 -4.248,-1.417 -6.313,-2.25 -2.026,-0.968 -4.099,-1.776 -6.004,-2.976 l -2.885,-1.689 -2.736,-1.949 c -1.861,-1.226 -3.455,-2.854 -5.144,-4.291 -3.137,-3.192 -6.084,-6.608 -8.208,-10.564 -1.199,-1.883 -2.001,-3.982 -2.881,-6.014 -0.477,-1 -0.688,-2.107 -1.033,-3.152 -0.286,-1.066 -0.676,-2.102 -0.852,-3.184 -0.316,-2.166 -0.86,-4.297 -0.844,-6.458 l -0.123,-3.213 c -0.003,-1.065 0.134,-2.117 0.202,-3.166 l 0.131,-1.572 0.067,-0.782 0.035,-0.393 c 0.119,-0.857 0.053,-0.334 0.09,-0.568 l 0.037,-0.168 0.579,-2.679 c 0.06,-0.391 0.268,-1.006 0.454,-1.577 l 0.582,-1.711 0.611,-1.675 0.724,-1.452 c 1.86,-3.918 4.482,-7.242 7.351,-10.051 5.75,-5.689 12.64,-9.297 19.594,-11.596 3.508,-1.108 7.075,-1.826 10.647,-2.187 1.805,-0.074 3.571,-0.272 5.371,-0.121 0.92,0.058 1.73,0.067 2.721,0.17 0.824,0.117 1.517,0.17 2.442,0.341 6.891,1.145 13.024,3.569 18.34,7.04 5.237,3.46 9.808,7.996 11.94,13.789 1.08,2.851 1.312,6.057 0.631,8.922 -0.697,2.875 -2.194,5.328 -3.938,7.252 -0.443,0.477 -0.911,0.918 -1.356,1.371 -0.571,0.522 -0.937,0.787 -1.408,1.188 -0.991,0.757 -2.12,1.481 -3.183,2.006 -2.182,1.087 -4.507,1.663 -6.735,1.769 -4.487,0.211 -8.448,-1.34 -11.319,-3.489 -2.876,-2.159 -4.769,-5.097 -5.043,-7.939 -0.148,-1.414 0.124,-2.729 0.587,-3.814 0.538,-1.049 1.144,-1.932 1.846,-2.561 1.349,-1.308 2.626,-1.975 3.47,-2.407 0.864,-0.4 1.307,-0.606 1.307,-0.606 0,0 -0.428,0.238 -1.256,0.701 -0.803,0.488 -2.017,1.25 -3.212,2.601 -0.629,0.65 -1.13,1.531 -1.552,2.52 -0.344,1.022 -0.493,2.204 -0.27,3.438 0.425,2.48 2.307,4.991 5.047,6.741 2.732,1.749 6.39,2.834 10.191,2.358 1.893,-0.236 3.793,-0.869 5.538,-1.908 0.902,-0.542 1.651,-1.11 2.452,-1.808 0.382,-0.376 0.917,-0.857 1.185,-1.158 l 1.058,-1.24 c 1.336,-1.713 2.3,-3.703 2.648,-5.81 0.317,-2.107 0.008,-4.328 -0.971,-6.423 -1.904,-4.234 -5.968,-7.859 -10.705,-10.471 -9.593,-5.279 -22.151,-6.962 -33.539,-2.054 -5.642,2.341 -11.101,5.822 -15.083,10.463 -2.006,2.285 -3.691,4.822 -4.705,7.544 l -0.424,1.002 -0.232,0.908 -0.253,0.885 c -0.09,0.293 -0.197,0.535 -0.244,1.054 l -0.379,2.716 -0.023,0.169 c 0.018,-0.122 -0.076,0.516 0.036,-0.231 l 0.002,0.296 v 0.59 l -0.002,1.181 c -0.378,12.66 7.73,24.236 19.713,29.57 1.419,0.78 3.032,1.223 4.54,1.836 1.568,0.488 3.163,0.929 4.769,1.298 1.607,0.237 3.325,0.698 4.782,0.735 l 2.252,0.222 c 0.852,0.05 1.92,0.031 2.87,0.048 6.678,-0.227 13.734,-1.037 20.178,-3.427 6.514,-2.244 12.721,-5.429 18.541,-9.343 5.816,-3.933 11.19,-8.654 16.249,-13.707 5.058,-5.073 9.751,-10.547 14.313,-16.265 2.319,-2.947 4.622,-5.878 6.91,-8.786 2.531,-3.056 5.026,-6.202 7.747,-9.128 5.291,-5.975 11.248,-11.416 17.563,-16.357 6.324,-4.93 13.291,-9.177 20.775,-12.36 7.457,-3.196 15.446,-5.305 23.449,-6.003 8.001,-0.72 15.949,-0.021 23.221,1.744 11.195,2.724 20.613,7.679 28.315,13.202 -0.898,-2.568 -2.004,-5.105 -3.402,-7.548 -4.204,-7.427 -11.089,-13.948 -20.995,-18.198 -9.831,-4.346 -22.447,-6.041 -35.842,-5.719 -3.36,0.038 -6.761,0.361 -10.252,0.596 -3.754,0.361 -7.535,0.725 -11.339,1.089 -7.796,0.695 -15.925,1.15 -24.21,0.967 -8.283,-0.199 -16.745,-0.934 -25.176,-2.765 -8.419,-1.846 -16.771,-4.727 -24.583,-8.787 l -5.753,-3.249 -5.412,-3.792 c -1.852,-1.19 -3.401,-2.779 -5.081,-4.176 l -2.464,-2.164 -0.308,-0.271 -0.153,-0.136 -0.416,-0.393 -0.501,-0.534 -1.002,-1.069 c -0.678,-0.74 -1.308,-1.37 -2.028,-2.197 l -2.255,-2.792 c -1.589,-1.871 -2.632,-3.739 -3.906,-5.608 -1.147,-1.92 -2.207,-3.895 -3.185,-5.898 -0.855,-2.074 -1.853,-4.062 -2.467,-6.228 l -1.013,-3.19 -0.726,-3.28 c -0.562,-2.153 -0.654,-4.43 -0.948,-6.63 -0.192,-4.47 -0.095,-8.981 0.975,-13.341 0.372,-2.202 1.179,-4.3 1.888,-6.397 0.314,-1.062 0.9,-2.024 1.342,-3.034 0.503,-0.981 0.905,-2.012 1.499,-2.936 1.217,-1.817 2.239,-3.765 3.698,-5.358 l 2.061,-2.471 c 0.709,-0.792 1.517,-1.481 2.27,-2.217 l 1.15,-1.078 0.573,-0.538 0.288,-0.265 c 0.662,-0.558 0.263,-0.214 0.448,-0.363 l 0.138,-0.102 2.225,-1.602 c 0.306,-0.249 0.871,-0.569 1.395,-0.866 l 1.574,-0.881 1.576,-0.835 1.511,-0.595 c 4.003,-1.666 8.175,-2.38 12.192,-2.545 8.078,-0.376 15.613,1.556 22.316,4.506 3.347,1.527 6.478,3.381 9.369,5.504 1.394,1.152 2.838,2.188 4.074,3.504 0.642,0.66 1.241,1.208 1.908,1.949 0.53,0.639 1.013,1.14 1.586,1.888 4.352,5.461 7.283,11.37 8.909,17.509 1.572,6.076 1.932,12.505 -0.362,18.238 -1.111,2.84 -3.086,5.374 -5.508,7.05 -2.443,1.669 -5.195,2.49 -7.783,2.749 -0.648,0.058 -1.287,0.074 -1.923,0.108 -0.773,0.007 -1.222,-0.041 -1.839,-0.06 -1.247,-0.098 -2.568,-0.316 -3.709,-0.641 -2.347,-0.652 -4.46,-1.779 -6.187,-3.193 -3.469,-2.849 -5.377,-6.652 -6.072,-10.172 -0.689,-3.527 -0.128,-6.977 1.571,-9.274 0.835,-1.148 1.918,-1.943 2.987,-2.44 1.102,-0.417 2.145,-0.668 3.088,-0.665 1.88,-0.072 3.273,0.288 4.189,0.535 0.91,0.28 1.378,0.423 1.378,0.423 0,0 -0.477,-0.107 -1.403,-0.317 -0.923,-0.178 -2.335,-0.426 -4.128,-0.219 -0.903,0.06 -1.864,0.381 -2.84,0.831 -0.939,0.531 -1.84,1.309 -2.504,2.375 -1.341,2.124 -1.626,5.252 -0.764,8.388 0.86,3.127 2.851,6.379 5.992,8.573 1.564,1.093 3.398,1.896 5.393,2.29 1.03,0.199 1.968,0.282 3.031,0.301 0.536,-0.023 1.253,-0.023 1.655,-0.065 0.533,-0.073 1.072,-0.144 1.614,-0.214 2.141,-0.377 4.191,-1.213 5.857,-2.545 1.646,-1.352 2.906,-3.211 3.583,-5.421 1.419,-4.42 0.825,-9.835 -0.942,-14.944 -3.594,-10.347 -11.792,-20.005 -23.54,-23.984 -5.757,-2.04 -12.142,-3.106 -18.206,-2.327 -3.024,0.355 -5.972,1.111 -8.547,2.457 l -0.985,0.461 -0.781,0.516 -0.78,0.489 c -0.262,0.161 -0.505,0.266 -0.889,0.619 l -2.098,1.764 -0.131,0.112 c 0.094,-0.079 -0.398,0.329 0.181,-0.147 l -0.196,0.219 -0.396,0.441 -0.79,0.875 c -8.759,9.149 -10.485,23.178 -5.156,35.161 0.531,1.533 1.431,2.938 2.144,4.405 0.837,1.412 1.726,2.807 2.671,4.156 1.031,1.253 2.002,2.745 3.061,3.749 l 1.524,1.674 c 0.6,0.605 1.404,1.304 2.098,1.954 5.114,4.305 10.897,8.427 17.283,10.965 6.343,2.693 13.087,4.487 20.03,5.474 6.952,0.972 14.104,1.061 21.244,0.697 7.156,-0.381 14.308,-1.308 21.522,-2.5 3.696,-0.636 7.37,-1.27 11.017,-1.898 3.928,-0.578 7.885,-1.241 11.867,-1.595 7.929,-0.895 15.996,-0.95 23.994,-0.391 8,0.572 16.018,2.082 23.708,4.727 7.68,2.618 15.022,6.402 21.438,11.241 5.041,3.784 9.445,8.201 13.157,12.911 3.713,-4.71 8.12,-9.127 13.16,-12.911 6.415,-4.839 13.755,-8.623 21.439,-11.241 7.686,-2.645 15.705,-4.155 23.706,-4.727 7.998,-0.559 16.065,-0.504 23.994,0.391 3.982,0.354 7.942,1.017 11.868,1.592 3.648,0.631 7.322,1.265 11.014,1.901 7.219,1.192 14.366,2.119 21.524,2.5 7.14,0.364 14.292,0.275 21.242,-0.697 6.945,-0.987 13.689,-2.781 20.031,-5.474 6.387,-2.538 12.171,-6.66 17.286,-10.965 0.689,-0.65 1.495,-1.349 2.096,-1.954 l 1.523,-1.674 c 1.058,-1.004 2.03,-2.496 3.06,-3.749 0.947,-1.349 1.836,-2.742 2.672,-4.156 0.712,-1.467 1.614,-2.872 2.145,-4.405 5.331,-11.983 3.602,-26.012 -5.158,-35.161 l -0.792,-0.875 -0.394,-0.441 -0.197,-0.219 c 0.582,0.476 0.088,0.068 0.183,0.147 l -0.133,-0.112 -2.097,-1.764 c -0.383,-0.353 -0.626,-0.458 -0.89,-0.619 l -0.781,-0.489 -0.776,-0.516 -0.987,-0.461 c -2.576,-1.346 -5.526,-2.102 -8.548,-2.457 -6.062,-0.779 -12.449,0.29 -18.208,2.327 -11.744,3.979 -19.945,13.637 -23.538,23.983 -1.765,5.11 -2.359,10.524 -0.94,14.944 0.676,2.211 1.936,4.07 3.581,5.422 1.669,1.332 3.717,2.168 5.856,2.545 0.544,0.07 1.085,0.141 1.619,0.214 0.395,0.042 1.117,0.042 1.653,0.065 1.062,-0.019 2,-0.102 3.031,-0.301 1.995,-0.394 3.829,-1.197 5.391,-2.29 3.143,-2.194 5.135,-5.446 5.992,-8.573 0.864,-3.136 0.58,-6.262 -0.762,-8.388 -0.661,-1.066 -1.564,-1.844 -2.505,-2.373 -0.975,-0.452 -1.935,-0.773 -2.839,-0.833 -1.794,-0.207 -3.204,0.041 -4.127,0.219 -0.927,0.21 -1.404,0.317 -1.404,0.317 0,0 0.468,-0.143 1.381,-0.423 0.913,-0.247 2.31,-0.607 4.186,-0.535 0.943,-0.003 1.986,0.248 3.087,0.667 1.07,0.495 2.154,1.292 2.988,2.438 1.702,2.297 2.259,5.747 1.571,9.274 -0.696,3.52 -2.6,7.325 -6.072,10.172 -1.727,1.414 -3.838,2.541 -6.186,3.193 -1.143,0.325 -2.465,0.543 -3.707,0.641 -0.622,0.019 -1.068,0.067 -1.844,0.06 -0.632,-0.034 -1.275,-0.05 -1.923,-0.108 -2.585,-0.259 -5.338,-1.08 -7.784,-2.749 -2.42,-1.676 -4.396,-4.213 -5.504,-7.05 -2.293,-5.733 -1.937,-12.162 -0.363,-18.238 1.624,-6.139 4.556,-12.048 8.91,-17.509 0.572,-0.748 1.052,-1.249 1.585,-1.888 0.667,-0.741 1.264,-1.289 1.908,-1.949 1.236,-1.316 2.682,-2.352 4.072,-3.504 2.89,-2.123 6.023,-3.977 9.371,-5.504 6.703,-2.95 14.237,-4.882 22.314,-4.506 4.017,0.165 8.189,0.879 12.193,2.545 l 1.509,0.595 1.578,0.835 1.574,0.881 c 0.522,0.297 1.09,0.617 1.394,0.866 l 2.225,1.602 0.139,0.102 c 0.186,0.151 -0.212,-0.194 0.45,0.363 l 0.285,0.265 0.575,0.538 1.149,1.08 c 0.753,0.734 1.561,1.423 2.269,2.217 l 2.061,2.469 c 1.46,1.593 2.48,3.541 3.701,5.358 0.594,0.924 0.996,1.955 1.496,2.939 0.442,1.007 1.03,1.969 1.342,3.031 0.707,2.097 1.517,4.195 1.89,6.397 1.068,4.362 1.164,8.871 0.976,13.344 -0.296,2.197 -0.389,4.474 -0.952,6.627 l -0.725,3.28 -1.011,3.19 c -0.615,2.166 -1.612,4.154 -2.469,6.228 -0.976,2.003 -2.035,3.978 -3.183,5.898 -1.276,1.869 -2.319,3.737 -3.905,5.608 l -2.255,2.792 c -0.718,0.827 -1.351,1.458 -2.029,2.197 l -1.002,1.069 -0.502,0.534 -0.418,0.396 -0.15,0.135 -0.308,0.269 -2.464,2.164 c -1.679,1.399 -3.23,2.986 -5.081,4.176 l -5.416,3.792 -5.747,3.249 c -7.815,4.06 -16.163,6.941 -24.587,8.787 -8.43,1.831 -16.893,2.566 -25.175,2.765 -8.284,0.183 -16.412,-0.272 -24.211,-0.967 -3.804,-0.364 -7.583,-0.728 -11.336,-1.089 -3.494,-0.235 -6.894,-0.561 -10.252,-0.596 -13.398,-0.322 -26.014,1.373 -35.842,5.719 -9.906,4.25 -16.792,10.771 -20.999,18.198 -1.398,2.443 -2.502,4.98 -3.401,7.549 7.702,-5.524 17.123,-10.479 28.316,-13.203 7.271,-1.765 15.219,-2.464 23.222,-1.744 8.003,0.698 15.99,2.807 23.45,6.003 7.483,3.183 14.448,7.43 20.774,12.36 6.315,4.941 12.269,10.382 17.56,16.357 2.722,2.926 5.218,6.072 7.749,9.128 2.287,2.91 4.593,5.839 6.91,8.786 4.561,5.718 9.255,11.192 14.316,16.265 5.059,5.053 10.431,9.774 16.245,13.707 5.821,3.914 12.028,7.099 18.543,9.343 6.444,2.39 13.5,3.2 20.178,3.427 0.952,-0.017 2.019,0.002 2.871,-0.048 l 2.249,-0.222 c 1.46,-0.037 3.178,-0.498 4.784,-0.735 1.606,-0.369 3.198,-0.81 4.768,-1.298 1.509,-0.613 3.121,-1.056 4.541,-1.836 11.98,-5.334 20.089,-16.91 19.715,-29.57 l -0.003,-1.182 0.003,-0.589 v -0.296 c 0.111,0.747 0.017,0.109 0.035,0.231 l -0.023,-0.169 -0.379,-2.716 c -0.046,-0.519 -0.155,-0.761 -0.244,-1.054 l -0.253,-0.885 -0.232,-0.908 -0.424,-1.001 c -1.014,-2.723 -2.699,-5.26 -4.708,-7.545 -3.983,-4.641 -9.439,-8.121 -15.081,-10.463 -11.388,-4.908 -23.946,-3.225 -33.54,2.054 -4.735,2.612 -8.801,6.237 -10.706,10.471 -0.979,2.095 -1.284,4.316 -0.969,6.423 0.348,2.107 1.312,4.097 2.648,5.81 l 1.055,1.24 c 0.268,0.301 0.804,0.782 1.186,1.158 0.801,0.698 1.552,1.266 2.453,1.808 1.744,1.039 3.645,1.672 5.537,1.908 3.803,0.476 7.461,-0.609 10.191,-2.358 2.743,-1.75 4.624,-4.261 5.048,-6.74 0.223,-1.235 0.074,-2.417 -0.269,-3.439 -0.421,-0.989 -0.925,-1.87 -1.55,-2.52 -1.195,-1.351 -2.41,-2.113 -3.212,-2.601 -0.832,-0.463 -1.258,-0.701 -1.258,-0.701 0,0 0.445,0.206 1.307,0.606 0.843,0.432 2.121,1.099 3.471,2.407 0.701,0.629 1.307,1.512 1.846,2.561 0.461,1.085 0.735,2.402 0.584,3.814 -0.272,2.844 -2.166,5.78 -5.043,7.939 -2.871,2.149 -6.832,3.7 -11.319,3.489 -2.227,-0.106 -4.551,-0.682 -6.732,-1.769 -1.064,-0.525 -2.19,-1.249 -3.181,-2.006 -0.473,-0.401 -0.839,-0.665 -1.409,-1.188 -0.45,-0.453 -0.915,-0.894 -1.358,-1.371 -1.745,-1.924 -3.24,-4.377 -3.939,-7.252 -0.679,-2.865 -0.448,-6.071 0.632,-8.922 2.133,-5.793 6.703,-10.329 11.94,-13.789 5.315,-3.471 11.45,-5.895 18.34,-7.04 0.926,-0.171 1.618,-0.224 2.443,-0.341 0.991,-0.103 1.801,-0.112 2.722,-0.17 1.799,-0.151 3.564,0.047 5.369,0.121 3.57,0.361 7.141,1.082 10.646,2.187 6.954,2.299 13.845,5.907 19.593,11.596 2.869,2.809 5.493,6.133 7.353,10.051 l 0.724,1.452 0.614,1.675 0.576,1.711 c 0.188,0.571 0.395,1.186 0.457,1.577 l 0.578,2.679 0.039,0.168 c 0.034,0.234 -0.031,-0.291 0.09,0.569 l 0.036,0.392 0.066,0.782 0.13,1.572 c 0.066,1.049 0.207,2.101 0.203,3.166 z"
           style="fill:#231f20;fill-opacity:1;fill-rule:nonzero;stroke:none"
           id="path4453"
           inkscape:connector-curvature="0" /></g></g></g></svg>